{
	"responseMap": {
		"transactionId": "1009610712",
		"fees": 700.0
	},
	"message": "Please wait for the SMS confirmation to see the result",
	"respTime": "Apr 3, 2017 7:19:12 PM",
	"statusCode": "SC0000"
}